{"teg":"row",  "value":[
    {"teg":"column","width":12,"value":[
        {"teg":"row",
            "value":[
                {"teg":"column", "width":3, "value":[
                    {"teg":"select", "name":"or-okr", "label":"ОР/ОКР",
                      "multiple":false, "required":true,
                      "items":{ "spec-jr":"Молодший спеціаліст","bach":"Бакалавр", "spec":"Спеціаліст", "mag":"Магістр"}
                    }
                ]},
                {"teg":"column", "width":3, "value":[
                    {"teg":"textfield","name":"telephone","label":"Номер телефона","required":true,"class":"telephone"}
                ]},
                {"teg":"column", "width":3, "value":[
                    {"teg":"select", "name":"course", "label":"Курс",
                      "multiple":false, "required":true,
                      "items":{ "1":"1", "2":"2", "3":"3", "4":"4" }
                    }
                ]},
                {"teg":"column", "width":3, "value":[
                    {"teg":"select", "name":"form", "label":"Форма навчання",
                      "multiple":false, "required":true,
                      "items":{ 
                            "gov":"Держзамовлення",
                            "contract":"Контракт"
                      }
                    }
                ]}
            ]
        },


        {"teg":"row",
            "value":[
                {"teg":"column", "width":12, "value":[

                    {
                            "teg":"tree",
                            "name":"department-spec", 
                            "label":"Факультет та спеціальність (освітня програма)",
                            "required":true,
                            "items":{
                              "biolog":{
                                 "label":"Біологічний факультет","value":"",
                                 "items":{
                                      "091-biolog":{"label":"091 Біологія (Біологія)"},
                                      "101-ecolog":{"label":"101 Екологія (Екологія, охорона навколишнього cередовища та збалансоване природокористування)"},
                                      "205-lisove":{"label":"205 Лісове господарство (Лісове і садово-паркове господарство)"},
                                      "102-chem":{"label":"102 Хімія (Хімія)"},
                                      "205-myslyvske-gosp":{"label":"205 Лісове господарство (Мисливське господарство)"},
                                      "102-genetyka":{"label":"091 Біологія (Генетика)"}
                                  }
                               },
                              "econom":{"label":"Економічний факультет","value":"",
                                 "items":{
                                    "072-finansy-kredyt":{"label":"072 Фінанси, банківська справа та страхування (Фінанси і кредит)"},
                                    "071-oblik-audyt":{"label":"071 Облік і оподаткування (Облік і аудит)"},
                                    "051-mizhn-econom":{"label":"051 Економіка (Міжнародна економіка)"},
                                    "051-econom-cyber":{"label":"051 Економіка (Економічна кібернетика)"},
                                    "051-upravl-person":{"label":"051 Економіка (Управління персоналом та економіка праці)"},
                                    "075-marketyng":{"label":"075 Маркетинг (Маркетинг)"},
                                    "072-bankivska-sprava":{"label":"072 Фінанси, банківська справа та страхування (Банківська справа)"},
                                    "051-ekonomika-divkillya":{"label":"051 Економіка (Економіка довкілля і природних ресурсів)"},
                                    "073-upr-bezpekoyu":{"label":"073 Менеджмент (Управління фінансово-економічною безпекою)"}, 
                                    "073-upr-proectamy":{"label":"073 Менеджмент (Управління проектами)"}
                                  }
                              },
                              "fif":{"label":"Факультет іноземної філології","value":"","items":{
                                    "035-lang-eng":{"label":"035 Філологія (Мова і література англійська)"},
                                    "035-tran-eng":{"label":"035 Філологія (Переклад англійський)"},
                                    "035-lang-deu":{"label":"035 Філологія (Мова і література німецька)"},
                                    "035-tran-deu":{"label":"035 Філологія (Переклад німецький)"},
                                    "035-lang-fra":{"label":"035 Філологія (Мова і література французька)"},
                                    "035-tran-fra":{"label":"035 Філологія (Переклад французький)"},
                                    "035-lang-esp":{"label":"035 Філологія (Мова і література іспанська) "}
                                  }
                              },
                              "fizvyh":{"label":"Факультет фізичного виховання","value":"","items":{
                                    "017-fizvyh":{"label":"017 Фізична культура і спорт (Фізичне виховання)"},
                                    "017-sport":{"label":"017 Фізична культура і спорт (Спорт)"},
                                    "227-reabilit":{"label":"227 Фізична реабілітація (Фізична реабілітація)"},
                                    "242-turyzm":{"label":"242 Туризм (Туризм)"},
                                    "016-logoped":{"label":"016 Спеціальна освіта (Логопедія та сурдопедагогіка)"},
                                    "242-turyzmoznavstvo":{"label":"242 Туризм (Туризмознавство)"}
                                  }
                              },
                              "history":{"label":"Історичний факультет","value":"","items":{
                                    "032-istoria":{"label":"032 Історія та археологія (Історія) "},
                                    "055-krainiznav":{"label":"055 Міжнародні відносини, суспільні комунікації та регіональні студії (Країнознавство) "},
                                    "032-arhivoznav":{"label":"032 Історія та археологія (Архівознавство)"}
                                  }
                              },
                              "journalist":{"label":"Факультет журналістики","value":"","items":{
                                  "061-journal":{"label":"061 Журналістика (Журналістика) "},
                                  "061-reklama":{"label":"061 Журналістика (Реклама і зв’язки з громадськістю) "},
                                  "061-vydavn":{"label":"061 Журналістика (Видавнича справа та редагування) "},
                                  "061-pr":{"label":"061 Журналістика  (Зв’язки з громадськістю) "},
                                  "061-media-comm":{"label":"061 Журналістика  (Медіа-комунікації) "}

                                }
                              },
                              "law":{"label":"Юридичний факультет","value":"","items":{
                                    "081-law":{"label":"081 Право (Правознавство)"}
                                  }
                              },
                              "manager":{"label":"Факультет менеджменту","value":"","items":{
                                  "073-menedg":{"label":"073 Менеджмент (Менеджмент)"},
                                  "076-pidpr":{"label":"076 Підприємництво, торгівля та біржова діяльність (Підприємництво, торгівля та біржова діяльність)"},
                                  "073-menedgment-org":{"label":"073 Менеджмент (Менеджмент  організації і адміністрування (за видами економічної діяльності))"},
                                  "073-menedgment-zed":{"label":"073 Менеджмент (Менеджмент зовнішньоекономічної діяльності)"},
                                  "073-menedgment-logistyka":{"label":"073 Менеджмент (Логістика)"},
                                  "073-menedgment-biznes-admin":{"label":"073 Менеджмент (Бізнес-адміністрування)"}
                                }
                              },
                              "mathem":{"label":"Математичний факультет","value":"",
                                 "items":{
                                     "014-mathem-md":{"label":"014 Середня освіта (Математика)"},
                                     "014-inform-md":{"label":"014 Середня освіта (Інформатика)"},
                                     "111-mathem":{"label":"111 Математика (Математика)"},
                                     "113-app-mathem":{"label":"113 Прикладна математика (Прикладна математика)"},
                                     "122-inform":{"label":"122 Комп’ютерні науки та інформаційні технології (Інформатика)"},
                                     "121-prog-eng":{"label":"121 Інженерія програмного забезпечення (Програмна інженерія)"}
                                  }
                               },
                              "phylology":{"label":"Філологічний факультет","value":"","items":{
                                    "035-lang-ukr":{"label":"035 Філологія (Українська мова та література)"},
                                    "035-lang-rus":{"label":"035 Філологія (Мова і література російська)"},
                                    "035-lang-pol":{"label":"035 Філологія (Переклад польський)"},
                                    "035-lang-blg":{"label":"035 Філологія(Переклад болгарський)"}
                                  }
                              },
                              "physics":{"label":"Фізичний факультет","value":"",
                                 "items":{
                                     "014-phys-md":{"label":"014 Середня освіта (фізика)"},
                                     "104-phys":{"label":"104 Фізика та астрономія (Фізика)"},
                                     "105-phys-app":{"label":"105 Прикладна фізика та наноматеріали (Прикладна фізика)"}
                                  }   
                              },
                              "spp":{"label":"Факультет соціальної педагогіки та психології","value":"","items":{
                                  "231-socialna-robota":{"label":"231 Соціальна робота (Соціальна педагогіка)"},
                                  "053-psyhologia":{"label":"053 Психологія (Психологія)"},
                                  "026-teatr":{"label":"026 Сценічне мистецтво (Театральне мистецтво)"},
                                  "022-design":{"label":"022 Дизайн (Дизайн)"},
                                  "011-pedagogika":{"label":"011 Науки про освіту (Педагогіка вищої школи)"}
                                }
                              },
                              "sociolog":{"label":"Факультет соцiологiї та управлiння","value":"","items":{
                                  "054-sociolog":{"label":"054 Соціологія (Соціологія) "},
                                  "052-politolog":{"label":"052 Політологія (Політологія) "},
                                  "231-soc-robota":{"label":"231 Соціальна робота (Соціальна робота) "},
                                  "035-filosof":{"label":"035 Філософія (Філософія)"},
                                  "074-derzh-sluzba":{"label":"074 Публічне управління та адміністрування (Державна служба)"}
                                }
                              },
                              "koledg-epk":{"label":"Економіко-правничий коледж","value":"","items":{
                                  "finansy-kredyt":{"label":"Фінанси, банківська справа та страхування (Фінанси і кредит) "},
                                  "oblik":{"label":"Облік і оподаткування (Бухгалтерський облік) "},
                                  "organiz-vyrob":{"label":"Менеджмент (Організація виробництва) "},
                                  "rozrobka-pz":{"label":"Інженерія програмного забезпечення (Розробка програмного забезпечення) "},
                                  "pravo":{"label":"Право (Правознавство) "},
                                  "turyzm":{"label":"Туризм (Туристичне обслуговування) "},
                                  "vydav":{"label":"Журналістика (Видавнича справа та редагування) "},
                                  "soc-ped":{"label":"Соціальна робота (Соціальна педагогіка) "},
                                  "soc-robota":{"label":"Соціальна робота (Соціальна робота) "},
                                  "":{"label":"Фізична культура і спорт (Фізичне виховання) "}
                                }
                              },
                              "koledg-torg":{"label":"Торговий коледж","value":"","items":{
                                  "tovaroznav":{"label":"Товарознавство та комерційна діяльність "},
                                  "oblik":{"label":"Бухгалтерський облік "},
                                  "vyrobn-harch":{"label":"Виробництво харчової продукції "},
                                  "marketyng":{"label":"Маркетингова діяльність "}
                                }
                              }
                           }       
                        }
                ]}
            ]
        },




        {"teg":"row","value":[
                {"teg":"column", "width":6, "value":[
                   {"teg":"html","html":"<h3>Адреса реєстрації (прописки) студента<br>&nbsp;</h3>"},
                   {"teg":"textfield","name":"region","label":"Область","required":true,"class":""},
                   {"teg":"textfield","name":"rayon","label":"Район","required":true,"class":""},
                   {"teg":"radio", "name":"city-type", "label":"",
                      "multiple":false, "required":true,
                      "items":{ 
                            "misto":"Місто",
                            "smt":"СМТ",
                            "selo":"Село",
                            "selyshe":"Селище"
                      }
                    },
                   {"teg":"textfield","name":"city","label":"","required":true,"class":"","placeholder":"Населений пункт"},
                   {"teg":"radio", "name":"street-type", "label":"",
                      "multiple":false, "required":true,
                      "items":{ 
                            "vul":"Вулиця",
                            "prov":"Провулок",
                            "prosp":"Проспект",
                            "kvart":"Квартал"
                      }
                    },
                   {"teg":"textfield","name":"street","placeholder":"Вулиця/провулок/проспект/квартал","required":true,"class":""},
                   {"teg":"row","value":[
                       {"teg":"column", "width":6, "value":[
                           {"teg":"textfield","name":"building","label":"Будинок","required":true,"class":""}
                       ]},
                       {"teg":"column", "width":6, "value":[
                           {"teg":"textfield","name":"flat","label":"Квартира","required":false,"class":""}
                       ]}
                   ]}
                ]},
                {"teg":"column", "width":6, "value":[
                   {"teg":"html","html":"<h3>Адреса проживання батьків (заповнюється, якщо відрізняється від прописки студента)</h3>"},
                   {"teg":"textfield","name":"region-parent","label":"Область","required":false,"class":""},
                   {"teg":"textfield","name":"rayon-parent","label":"Район","required":false,"class":""},
                   {"teg":"radio", "name":"city-parent-type", "label":"",
                      "multiple":false, "required":false,
                      "items":{ 
                            "misto":"Місто",
                            "smt":"СМТ",
                            "selo":"Село",
                            "selyshe":"Селище"
                      }
                   },
                   {"teg":"textfield","name":"city-parent","placeholder":"Населений пункт","required":false,"class":""},
                   {"teg":"radio", "name":"street-parent-type", "label":"",
                      "multiple":false, "required":false,
                      "items":{ 
                            "vul":"Вулиця",
                            "prov":"Провулок",
                            "prosp":"Проспект",
                            "kvart":"Квартал"
                      }
                    },
                   {"teg":"textfield","name":"street-parent","placeholder":"Вулиця/провулок/проспект/квартал","required":false,"class":""},
                   {"teg":"row","value":[
                       {"teg":"column", "width":6, "value":[
                           {"teg":"textfield","name":"building-parent","label":"Будинок","required":false,"class":""}
                       ]},
                       {"teg":"column", "width":6, "value":[
                           {"teg":"textfield","name":"flat-parent","label":"Квартира","required":false,"class":""}
                       ]}
                   ]}
                ]}
        ]},
        {"teg":"row","value":[
            {"teg":"column", "width":12, "value":[
                {"teg":"html","html":"<h3>Дані про документ, що підтверджує особу студента</h3>"}
            ]}
        ]},
        {"teg":"row","value":[

            {"teg":"column", "width":3, "value":[
               {"teg":"radio", "name":"doctype", "label":"",
                 "multiple":false, "required":true,
                 "value":"pasport",
                 "items":{ 
                    "pasport":"Паспорт",
                    "svidotstvo":"Свідоцтво про народження"
                  }
                }
            ]},

            {"teg":"column", "width":1, "value":[
                {"teg":"textfield","name":"passport-series","label":"Серія","required":true,"class":""}
            ]},
            {"teg":"column", "width":2, "value":[
                {"teg":"textfield","name":"passport-num","label":"Номер","required":true,"class":""}
            ]},
            {"teg":"column", "width":4, "value":[
                {"teg":"textfield","name":"passport-issuer","label":"Ким виданий документ (заповнювати, як у паспорті або свідоцтві)","required":true,"class":""}
            ]},
            {"teg":"column", "width":2, "value":[
                {"teg":"date","name":"passport-date","label":"Дата видачі","required":true,"class":"", "tip":"дд.мм.рррр"}
            ]}
        ]},
        {"teg":"row","value":[
            {"teg":"column", "width":4, "value":[
                {"teg":"date","name":"birth-date","label":"Дата народження","required":true,"class":"", "tip":"дд.мм.рррр"}
            ]},
            {"teg":"column", "width":8, "value":[
                {"teg":"textfield","name":"birth-place","label":"Місце народження","required":true,"class":"","tip":"Записати, як у паспорті"}
            ]}
        ]},
        {"teg":"row","value":[
            {"teg":"column", "width":4, "class":"passport-scan","value":[
                {"teg":"html","html":"<h4>Завантажити копію паспорта</h4> (1, 2 сторінка та прописка) або свідоцтва про народження"},
                {"teg":"file","name":"passport-scan","label":"Сторінка 1 або всі сторінки одним файлом","required":true,"class":"","max-size":"1M","extension":"gif|png|jpg|jpeg|tif|tiff|bmp|pdf|zip|rar"},
                {"teg":"file","name":"passport-scan-2","label":"Сторінка 2","required":false,"class":"","max-size":"1M","extension":"gif|png|jpg|jpeg|tif|tiff|bmp|pdf|zip|rar"},
                {"teg":"file","name":"passport-scan-3","label":"Сторінка 3","required":false,"class":"","max-size":"1M","extension":"gif|png|jpg|jpeg|tif|tiff|bmp|pdf|zip|rar"},
                {"teg":"html","html":"Розмір файла - до 1МБ, формат gif.png/jpg/jpeg/tif/tiff/bmp/pdf/zip/rar"}
            ]},
            {"teg":"column", "width":8, "value":[
                {"teg":"file","name":"passport-photo","label":"Завантажити фотографію студента (якісну)","required":true,"class":"","max-size":"1M","extension":"gif|png|jpg|jpeg|tif|tiff|bmp|pdf"},
                {"teg":"html","html":"Розмір фотографіі - 3x4, 480x640 px або більша, зроблена не більше 6 місяців тому, розмір файла - до 1МБ, формат gif/png/jpg/jpeg/tif/tiff/bmp/pdf"}
            ]}
        ]},
        {"teg":"row","value":[
            {"teg":"column", "width":12, "value":[
                {"teg":"html","html":"<h3>Дані про членів родини, з якими проживає студент</h3>"},
                {"teg":"html","html":"<p>Якщо Мати/Мачуха/Батько/Вітчим/Опікун відсутні, то вписуйте у відповідні поля прочерк (знак \"-\")</p>"}
            ]}
        ]},
        {"teg":"row","value":[
            {"teg":"column", "width":6, "value":[
                {"teg":"radio", "name":"parent-f", "label":"",
                 "multiple":false, "required":true,
                 "value":"pasport",
                 "items":{ 
                    "maty":"Мати",
                    "machyha":"Мачуха",
                    "opikun":"Опікун"
                  }
                },
                {"teg":"textfield","name":"parent-f-last-name","label":"Прізвище","required":true,"class":""},
                {"teg":"textfield","name":"parent-f-first-name","label":"Ім'я","required":true,"class":""},
                {"teg":"textfield","name":"parent-f-surname-name","label":"По батькові","required":false,"class":""},
                {"teg":"textfield","name":"parent-f-tel","label":"Мобільний телефон","required":true,"class":""},
                {"teg":"textfield","name":"parent-f-income","label":"Сума доходів за останні півроку","required":true,"class":"number"},
                {"teg":"file","name":"parent-f-scan","label":"Довідка про доходи за останні півроку","required":true,"class":"","max-size":"1M","extension":"gif|png|jpg|jpeg|tif|tiff|bmp|pdf"},
                {"teg":"html","html":"Розмір файла - до 1МБ, формат gif/png/jpg/jpeg/tif/tiff/bmp/pdf"}
            ]},
            {"teg":"column", "width":6, "value":[
                {"teg":"radio", "name":"parent-m", "label":"",
                 "multiple":false, "required":true,
                 "value":"pasport",
                 "items":{ 
                    "maty":"Батько",
                    "machyha":"Вітчим",
                    "opikun":"Опікун"
                  }
                },
                {"teg":"textfield","name":"parent-m-last-name","label":"Прізвище","required":true,"class":""},
                {"teg":"textfield","name":"parent-m-first-name","label":"Ім'я","required":true,"class":""},
                {"teg":"textfield","name":"parent-m-surname-name","label":"По батькові","required":false,"class":""},
                {"teg":"textfield","name":"parent-m-tel","label":"Мобільний телефон","required":true,"class":""},
                {"teg":"textfield","name":"parent-m-income","label":"Сума доходів за останні півроку","required":true,"class":"number"},
                {"teg":"file","name":"parent-m-scan","label":"Довідка про доходи за останні півроку","required":true,"class":"","max-size":"1M","extension":"gif|png|jpg|jpeg|tif|tiff|bmp|pdf"},
                {"teg":"html","html":"Розмір файла - до 1МБ, формат gif/png/jpg/jpeg/tif/tiff/bmp/pdf"}
            ]}
        ]},
        {"teg":"row","value":[
            {"teg":"column", "width":12, "value":[
                {"teg":"textarea","name":"siblings","label":"<br><h4>Брати та сестри віком до 18 років або студенти денної форми навчання</h4><p>Дані внести за прикладом <b>Іванова Богдана Степанівна, 2003 р.н., навчається у школі</b></p>","required":false,"class":""}
            ]}
        ]},
        {"teg":"row","value":[
            {"teg":"column", "width":12, "value":[
                {"teg":"file","name":"family-scan","label":"Довідка про склад сім'ї","required":true,"class":"","max-size":"1M","extension":"gif|png|jpg|jpeg|tif|tiff|bmp|pdf"},
                {"teg":"html","html":"Розмір файла - до 1МБ, формат gif/png/jpg/jpeg/tif/tiff/bmp/pdf<br><br>"}
            ]}
        ]},
        {"teg":"row","value":[
            {"teg":"column", "width":12, "value":[
                {"teg":"file","name":"application-scan","label":"Фотографія заповненого вручну бланка заяви","required":true,"class":"","max-size":"1M","extension":"gif|png|jpg|jpeg|tif|tiff|bmp|pdf"},
                {"teg":"html","html":"Розмір файла - до 1МБ, формат gif/png/jpg/jpeg/tif/tiff/bmp/pdf"},
                {"teg":"html","html":"<p><a href='http://sites.znu.edu.ua/liberal_edu/docs/ZAYAVA.doc'>Скачати бланк заяви</a> з сайту &quot;Гуртожитки ЗНУ&quot;, роздрукувати,  заповнити за <a href='http://sites.znu.edu.ua/liberal_edu/blanky/zrazok-zapolnen-zayavu.pdf'>зразком</a>).</p>"}
            ]}
        ]},
        {"teg":"row","value":[
            {"teg":"column", "width":12, "value":[
                {"teg":"html","html":"<h3>Пільги</h3>"}
            ]}
        ]},
        {"teg":"row","value":[
            {"teg":"column", "width":6, "value":[
                {"teg":"textfield","name":"benefit-name","label":"Якщо ви належите до будь-якої пільгової категорії, вкажіть її","required":false,"class":""}
            ]},
            {"teg":"column", "width":6, "value":[
                {"teg":"file","name":"benefit-scan","label":"Завантажити документи, що підтверджують пільгу","required":false,"class":"","max-size":"1M","extension":"gif|png|jpg|jpeg|tif|tiff|bmp|pdf"},
                {"teg":"html","html":"Розмір файла - до 1МБ, формат gif/png/jpg/jpeg/tif/tiff/bmp/pdf"}
            ]}
        ]},
        {"teg":"row","value":[
            {"teg":"column", "width":12, "value":[
                {"teg":"html","html":"<h3>Медичні довідки</h3>"}
            ]}
        ]},
        {"teg":"row","class":"passport-scan","value":[
            {"teg":"column", "width":6, "value":[
                {"teg":"html","html":"<h4>Завантажити копію довідки про флюорографічне обстеження</h4>"},
                {"teg":"file","name":"med-scan-photo","label":"Сторінка 1 або всі зображення одним файлом","required":false,"class":"","max-size":"1M","extension":"gif|png|jpg|jpeg|tif|tiff|bmp|pdf|zip|rar"},
                {"teg":"file","name":"med-scan-photo-2","label":"Сторінка 2","required":false,"class":"","max-size":"1M","extension":"gif|png|jpg|jpeg|tif|tiff|bmp|pdf|zip|rar"},
                {"teg":"html","html":"Розмір файла - до 1МБ, формат gif/png/jpg/jpeg/tif/tiff/bmp/pdf/zip/rar"}
            ]},
            {"teg":"column", "width":6, "class":"passport-scan", "value":[
                {"teg":"html","html":"<h4>Завантажити копію довідки про щеплення</h4>"},
                {"teg":"file","name":"med-scan-vaccination","label":"Сторінка 1 або всі зображення одним файлом","required":false,"class":"","max-size":"1M","extension":"gif|png|jpg|jpeg|tif|tiff|bmp|pdf|zip|rar"},
                {"teg":"file","name":"med-scan-vaccination-2","label":"Сторінка 2","required":false,"class":"","max-size":"1M","extension":"gif|png|jpg|jpeg|tif|tiff|bmp|pdf|zip|rar"},
                {"teg":"html","html":"Розмір файла - до 1МБ, формат gif/png/jpg/jpeg/tif/tiff/bmp/pdf/zip/rar"}
            ]}
        ]},
        {"teg":"row","value":[
            {"teg":"column", "width":12, "value":[
                {"teg":"html","html":"<h3>Звернення до адміністрації</h3>"},
                {"teg":"html","html":"<p>На що Ви вважаєте необхідно звернути увагу при розгляданні вашої заяви. Можна вказати побажання про поселення студентів в одну кімнату (за можливості комісія врахує ваші побажання), або інші моменти, які не відобразилися у формі</p>"}
            ]},
            {"teg":"column", "width":12, "value":[
                {"teg":"textarea","name":"additional-notes","label":"Додаткові примітки / побажання","required":false,"class":""}
            ]},
            {"teg":"column", "width":12, "value":[
                    {"teg":"select", "name":"hostel-preference", "label":"В який би гуртожиток Ви хотіли поселитись",
                      "multiple":false, "required":false,
                      "items":{ 
                            "any":"Будь-який гуртожиток університету",
                            "2":"Тільки в гуртожиток №2",
                            "3":"Тільки в гуртожиток №3",
                            "4":"Тільки в гуртожиток №4",
                            "not2":"В разі розподілення в гуртожиток №2 відмовлюся від поселення"
                      }
                    }
            ]},
            {"teg":"column", "width":12, "value":[
                {"teg":"checkbox","name":"policy-ageement","label":"Даю згоду на обробку моїх персональних даних з метою поселення в гуртожиток","required":true,"class":""}
            ]},
            {"teg":"column", "width":12, "value":[
                {"teg":"html","html":"Всі персональні дані захищені."}
            ]}
        ]}
    ]}
]}